{
	"extensionName": {
		"message": "Weather Extension",
		"description": "Extension name."
	},
	
	"extensionDescription": {
		"message": "A simple extension to display the temperature and weather conditions for your current location.",
		"description": "Short description about the extension."
	},
	
	"providedBy": {
		"message": "Data provided by $provider$",
		"description": "A note about the provider of the API which is used to retrieve the weather forecasts.",
		"placeholders": {
			"provider": {
				"content": "$1",
				"example": "Yahoo! Weather"
			}
		}
	}
}